{
	"tileSize": 16,
	"layers": [
		[
			{},
			{
				"file": "tiles",
				"tx": 0,
				"ty": 0,
				"props": {
					"collide": true
				}
			},
			{},
			{},
			{},
			{
				"tx": 0,
				"ty": 1},
			{},
			{},
			{}
		]
	]
}
